{
  "mappings": {
      "vacancy": {
          "properties": {
              "jobtitle": {
                  "type": "string"
              },
              "languages": {
              	"type": "multi_field",
           			"fields": {
              			"untouched": {
                 			"type": "string",
                 			"index": "not_analyzed"
              			},
              			"languages": {
                 			"type": "string"
              			}
                }
           		},
              "description": {
                  "type": "string"
              },
              "compskills": {
              	"type": "multi_field",
           			"fields": {
              			"untouched": {
                 			"type": "string",
                 			"index": "not_analyzed"
              			},
              			"compskills": {
                 			"type": "string"
              			}
                }
              }
          }
      }
  }
}